module gitlab.com/tienable/go-micro-services/consignment-service

go 1.12

require (
	cloud.google.com/go v0.40.0 // indirect
	github.com/golang/mock v1.3.1 // indirect
	github.com/golang/protobuf v1.3.1
	github.com/google/btree v1.0.0 // indirect
	github.com/google/pprof v0.0.0-20190515194954-54271f7e092f // indirect
	github.com/googleapis/gax-go/v2 v2.0.5 // indirect
	github.com/kr/pty v1.1.5 // indirect
	github.com/micro/go-micro v1.6.0
	github.com/micro/protobuf v0.0.0-20180321161605-ebd3be6d4fdb
	go.opencensus.io v0.22.0 // indirect
	golang.org/x/crypto v0.0.0-20190611184440-5c40567a22f8 // indirect
	golang.org/x/exp v0.0.0-20190510132918-efd6b22b2522 // indirect
	golang.org/x/image v0.0.0-20190523035834-f03afa92d3ff // indirect
	golang.org/x/mobile v0.0.0-20190607214518-6fa95d984e88 // indirect
	golang.org/x/mod v0.1.0 // indirect
	golang.org/x/net v0.0.0-20190613194153-d28f0bde5980
	golang.org/x/sys v0.0.0-20190614160838-b47fdc937951 // indirect
	golang.org/x/time v0.0.0-20190308202827-9d24e82272b4 // indirect
	golang.org/x/tools v0.0.0-20190614205625-5aca471b1d59 // indirect
	google.golang.org/appengine v1.6.1 // indirect
	google.golang.org/genproto v0.0.0-20190611190212-a7e196e89fd3 // indirect
	google.golang.org/grpc v1.21.1
	honnef.co/go/tools v0.0.0-20190614002413-cb51c254f01b // indirect
)
